*** Life<ConwayCell> 9x6 ***

Generation = 0, Population = 54.
******
******
******
******
******
******
******
******
******

*** Life<ConwayCell> 16x23 ***

Generation = 0, Population = 167.
........***..**.**..*.*
*.*...*.*..*.**...*..**
...*..***.*....*.*.**..
..**.*..*..***....*.**.
****...*....**.*.*..*..
****....*.*..**..**....
.*..*....**.***...*.*..
..**....**.******..*.**
.*.**.***.*..*.........
..**.*...****......**.*
****.*...*..***..******
**.*.*.*.*...**..*****.
****.......*.******...*
**....***.*..*.***.***.
.....*.....**..*.*.**..
.*..*....**...****.*...

*** Life<ConwayCell> 23x4 ***

Generation = 0, Population = 12.
....
....
..*.
...*
....
*...
....
....
...*
....
..*.
....
*..*
....
.*..
*...
....
*...
...*
..*.
....
....
....

Generation = 5, Population = 0.
....
....
....
....
....
....
....
....
....
....
....
....
....
....
....
....
....
....
....
....
....
....
....

Generation = 10, Population = 0.
....
....
....
....
....
....
....
....
....
....
....
....
....
....
....
....
....
....
....
....
....
....
....

Generation = 15, Population = 0.
....
....
....
....
....
....
....
....
....
....
....
....
....
....
....
....
....
....
....
....
....
....
....

Generation = 20, Population = 0.
....
....
....
....
....
....
....
....
....
....
....
....
....
....
....
....
....
....
....
....
....
....
....

Generation = 25, Population = 0.
....
....
....
....
....
....
....
....
....
....
....
....
....
....
....
....
....
....
....
....
....
....
....

Generation = 30, Population = 0.
....
....
....
....
....
....
....
....
....
....
....
....
....
....
....
....
....
....
....
....
....
....
....

Generation = 35, Population = 0.
....
....
....
....
....
....
....
....
....
....
....
....
....
....
....
....
....
....
....
....
....
....
....

Generation = 40, Population = 0.
....
....
....
....
....
....
....
....
....
....
....
....
....
....
....
....
....
....
....
....
....
....
....

Generation = 45, Population = 0.
....
....
....
....
....
....
....
....
....
....
....
....
....
....
....
....
....
....
....
....
....
....
....

*** Life<ConwayCell> 4x5 ***

Generation = 0, Population = 16.
****.
*.***
**.**
****.

Generation = 9, Population = 0.
.....
.....
.....
.....

Generation = 18, Population = 0.
.....
.....
.....
.....

Generation = 27, Population = 0.
.....
.....
.....
.....

Generation = 36, Population = 0.
.....
.....
.....
.....

Generation = 45, Population = 0.
.....
.....
.....
.....

Generation = 54, Population = 0.
.....
.....
.....
.....

Generation = 63, Population = 0.
.....
.....
.....
.....

Generation = 72, Population = 0.
.....
.....
.....
.....

*** Life<ConwayCell> 12x16 ***

Generation = 0, Population = 84.
.*..*.*...*.....
.....******.*.**
.**.**.**..*...*
*....**.*.*..**.
..*.*.***..*..*.
***..*..*.*..*.*
.**..**.....*...
...*...**..*....
.**.***.*.*.**..
..**.***...*.***
....*..**.***..*
...**..*..**.**.

Generation = 10, Population = 34.
................
................
.***...*.*......
*..*...**.......
*.**....*.......
.*..............
..*.............
.**.***.........
***..*....***...
*.........*..*..
.*.........***..
................

Generation = 20, Population = 39.
.****...........
.*...*..........
**..*...........
..*..*..........
..***...........
...**......***..
.........**.....
.....*....*.*...
....*..*...*.**.
.....***.....*.*
.....***......**
................

Generation = 30, Population = 32.
................
............*...
...........***..
...........*..**
...............*
**..............
...............*
...***.........*
...**....*...**.
..*...**........
...*....**.*....
...*..*.***.....

Generation = 40, Population = 40.
...........*....
..........*.*...
...........***..
...........**...
.....*.....**.**
....**..........
**.**...........
*.*.....**......
*.......***.....
*.*.***..*......
*...*..**.......
.***............

Generation = 50, Population = 32.
................
.............*..
............*...
.............*..
.....**..*......
.....*......***.
.....*....**..*.
.......**....*..
.*.......*...*..
*.*.....*.......
*.*..*...*.*....
.*...**...*.....

Generation = 60, Population = 28.
................
....*...........
...*.*..........
..*..*..........
.**.*...........
..**............
.............**.
.............***
.*.......***....
*.*......*.*....
*.*......*......
.*......*.......

Generation = 70, Population = 27.
................
................
................
.*..............
.*..............
................
..........**....
..*.....****....
.*..*..*....*...
.*..*.*..***....
.*..*..****.....
..**............

Generation = 80, Population = 32.
................
................
................
................
................
............*...
.............*..
..**...**...*.*.
.*....**.**.*.**
*....**....*..*.
.***..***.**..*.
............**..

Generation = 90, Population = 29.
................
................
................
................
................
................
....**....*.....
....**...*.*....
.....**.*****...
...*.*..*****...
.*...*...***....
.*..*.....*.....

*** Life<ConwayCell> 4x2 ***

Generation = 0, Population = 8.
**
**
**
**

Generation = 10, Population = 0.
..
..
..
..

Generation = 20, Population = 0.
..
..
..
..

Generation = 30, Population = 0.
..
..
..
..

Generation = 40, Population = 0.
..
..
..
..

*** Life<ConwayCell> 21x11 ***

Generation = 0, Population = 102.
*..**......
**.***.*.**
*......***.
.*.*.*.***.
..*.***...*
*..**...*.*
......*..*.
***....*...
*.***.**..*
**....**.*.
..*.**.....
.....*..*.*
..**..**.**
**..*.....*
***..*.....
..*.*.**..*
***.***..*.
*.**..*.**.
*....*.*.*.
.*..*..***.
..*...*****

Generation = 9, Population = 52.
......*....
....**.....
.....*..*..
......*.**.
...****....
.**..**....
..........*
*........*.
.*..*......
..*.*.**...
...**.**...
...*..*....
....**.....
...........
...........
........*..
..*...*.**.
.***..*.*..
*..**...*..
...*...*...
....***....

Generation = 18, Population = 67.
...*.......
..*.*...**.
..*.*....*.
......*..*.
.....**..*.
...**...*..
...**.**...
...*..**...
....***....
....***....
......*....
....*.**...
...*..*....
...***.....
...***.*...
....*.***..
.*.***.*.**
..*.*.*..**
........*.*
..**..**.**
........*..

Generation = 27, Population = 20.
...**......
..*..*.....
...*.*.....
....*......
...........
...........
...........
...........
...........
...........
.......**..
.........*.
.......**..
.......***.
...........
...........
.**........
.*.*.......
..*........
...........
...........

Generation = 36, Population = 12.
...**......
..*..*.....
...*.*.....
....*......
...........
...........
...........
...........
...........
...........
...........
...........
...........
...........
...........
...........
.**........
.*.*.......
..*........
...........
...........

Generation = 45, Population = 12.
...**......
..*..*.....
...*.*.....
....*......
...........
...........
...........
...........
...........
...........
...........
...........
...........
...........
...........
...........
.**........
.*.*.......
..*........
...........
...........

Generation = 54, Population = 12.
...**......
..*..*.....
...*.*.....
....*......
...........
...........
...........
...........
...........
...........
...........
...........
...........
...........
...........
...........
.**........
.*.*.......
..*........
...........
...........

Generation = 63, Population = 12.
...**......
..*..*.....
...*.*.....
....*......
...........
...........
...........
...........
...........
...........
...........
...........
...........
...........
...........
...........
.**........
.*.*.......
..*........
...........
...........

Generation = 72, Population = 12.
...**......
..*..*.....
...*.*.....
....*......
...........
...........
...........
...........
...........
...........
...........
...........
...........
...........
...........
...........
.**........
.*.*.......
..*........
...........
...........

Generation = 81, Population = 12.
...**......
..*..*.....
...*.*.....
....*......
...........
...........
...........
...........
...........
...........
...........
...........
...........
...........
...........
...........
.**........
.*.*.......
..*........
...........
...........

Generation = 90, Population = 12.
...**......
..*..*.....
...*.*.....
....*......
...........
...........
...........
...........
...........
...........
...........
...........
...........
...........
...........
...........
.**........
.*.*.......
..*........
...........
...........

*** Life<ConwayCell> 19x19 ***

Generation = 0, Population = 44.
**....*.....*......
*...*............*.
...*......*........
............*......
.....*.............
.*.....*.*..*......
.................*.
...............*...
.*..........*......
..........*....*.*.
......*...*..*.....
.......*..........*
.........*......*..
....*.........*....
...........*.......
........**.........
....*.....*........
..........*.**.**..
........*.*....*...

Generation = 6, Population = 13.
**.................
**.................
...................
...................
...................
...................
...................
...................
...................
...................
...................
...................
...................
...................
..........***......
.........*..*......
.........*.**......
..........*........
...................

Generation = 12, Population = 35.
**.................
**.................
...................
...................
...................
...................
...................
...................
...................
...................
...................
...........*.......
..........***......
.........*****.....
........**...**....
.......***...***...
........**...**....
.........*****.....
..........***......

Generation = 18, Population = 35.
**.................
**.................
...................
...................
...................
...................
...................
...................
...........*.......
...........*.......
...................
.........*.*.*.....
.........*****.....
.......**.***.**...
........**.*.**....
....**....*.*....**
......*....*....*..
...................
...................

Generation = 24, Population = 19.
**.................
**.................
...................
...................
...................
...................
...................
...................
...................
...........*.......
.........**.**.....
...................
...................
.........**.**.....
.....***.......***.
...................
...................
...................
...................

Generation = 30, Population = 16.
**.................
**.................
...................
...................
...................
...................
...................
...................
...........*.......
..........*.*......
..........*.*......
...........*.......
...................
...................
.....***.......***.
...................
...................
...................
...................

Generation = 36, Population = 16.
**.................
**.................
...................
...................
...................
...................
...................
...................
...........*.......
..........*.*......
..........*.*......
...........*.......
...................
...................
.....***.......***.
...................
...................
...................
...................

Generation = 42, Population = 16.
**.................
**.................
...................
...................
...................
...................
...................
...................
...........*.......
..........*.*......
..........*.*......
...........*.......
...................
...................
.....***.......***.
...................
...................
...................
...................

Generation = 48, Population = 16.
**.................
**.................
...................
...................
...................
...................
...................
...................
...........*.......
..........*.*......
..........*.*......
...........*.......
...................
...................
.....***.......***.
...................
...................
...................
...................

Generation = 54, Population = 16.
**.................
**.................
...................
...................
...................
...................
...................
...................
...........*.......
..........*.*......
..........*.*......
...........*.......
...................
...................
.....***.......***.
...................
...................
...................
...................

Generation = 60, Population = 16.
**.................
**.................
...................
...................
...................
...................
...................
...................
...........*.......
..........*.*......
..........*.*......
...........*.......
...................
...................
.....***.......***.
...................
...................
...................
...................

*** Life<ConwayCell> 25x17 ***

Generation = 0, Population = 187.
...*.....***.*.*.
....**.*...**..*.
...***..*..*..*..
*.**..*.*...*.*..
**..**...*...**..
*...*.*.**.......
*.*.*...*****.**.
..*..*.*.*..*****
...**.*....****..
**.*...**.*..*.*.
..*.*...**...****
..******...*....*
*..**.*.*.**..***
.**..*.**...*..*.
******.***.*..**.
.*****.**..*..***
.**..***.*...*..*
....***.....*.**.
*.....*..*.......
*........*.*.....
*..**...*.*.**...
*.****.**.*...***
...**....*...**..
.*****....***...*
..**.*..****...*.

Generation = 7, Population = 66.
.................
.................
.......**....*...
...**..**...**.*.
......*.....*.**.
.........*....*.*
..*....*.*......*
*.**....**.......
*.*.*....*.......
*..*.........*.*.
****.......***.*.
..*..............
.............*...
.................
.................
.................
.................
.................
.***.............
.*...............
...........**....
.......**..***...
*...*****.*.*....
.*.......*.......
......*..........

Generation = 14, Population = 64.
.................
.............**..
............***..
............**...
..*....**........
.*.*..*..........
..............*..
**.****.....***..
.....*....*.***..
........*.*.*.*..
.........*...***.
...............*.
..............*..
.................
.................
.................
.................
.**..............
*..*.............
.**.......*......
........***......
.......**..*.....
......*.****.....
......******.....
.......**........

Generation = 21, Population = 37.
.................
.................
.................
.................
...**............
..*.....*........
..*.....**.*.....
........**.*.....
...***....*.**...
........*...*....
.........*.**....
..........*......
.................
.................
.................
.................
.................
.**..............
*..*.....**......
.**....**.*......
.................
.......*.*.......
........*........
.................
.................

*** Life<ConwayCell> 7x12 ***

Generation = 0, Population = 84.
************
************
************
************
************
************
************

Generation = 9, Population = 0.
............
............
............
............
............
............
............

Generation = 18, Population = 0.
............
............
............
............
............
............
............

Generation = 27, Population = 0.
............
............
............
............
............
............
............

Generation = 36, Population = 0.
............
............
............
............
............
............
............

Generation = 45, Population = 0.
............
............
............
............
............
............
............

Generation = 54, Population = 0.
............
............
............
............
............
............
............

Generation = 63, Population = 0.
............
............
............
............
............
............
............

Generation = 72, Population = 0.
............
............
............
............
............
............
............

Generation = 81, Population = 0.
............
............
............
............
............
............
............

Generation = 90, Population = 0.
............
............
............
............
............
............
............

*** Life<ConwayCell> 4x27 ***

Generation = 0, Population = 108.
***************************
***************************
***************************
***************************

Generation = 5, Population = 0.
...........................
...........................
...........................
...........................

Generation = 10, Population = 0.
...........................
...........................
...........................
...........................

Generation = 15, Population = 0.
...........................
...........................
...........................
...........................

Generation = 20, Population = 0.
...........................
...........................
...........................
...........................

Generation = 25, Population = 0.
...........................
...........................
...........................
...........................

Generation = 30, Population = 0.
...........................
...........................
...........................
...........................

Generation = 35, Population = 0.
...........................
...........................
...........................
...........................

*** Life<ConwayCell> 14x7 ***

Generation = 0, Population = 97.
*******
*******
*******
*******
*******
*******
*******
*******
*.*****
*******
*******
*******
*******
*******
